graph dgx4node {
  "dummy" [function="fake"]
  "oob-mgmt-server"  [function="oob-server" mgmt_ip="192.168.200.1" os="generic/ubuntu1804" vagrant_user="cumulus" ]
  "oob-mgmt-switch"  [function="oob-switch" mgmt_ip="192.168.200.2" version="4.2.1" ]
  "netq-ts"   [function="host" mgmt_ip="192.168.200.250" cpu="4" memory="8192" os="netq-ts-cloud-3.1.0" vagrant_user="cumulus" config="helper_scripts/netq_server_config.sh"]

  "gpu-leaf01" [function="leaf" version="4.2.1" mgmt_ip="192.168.200.21"]
  "gpu-leaf02" [function="leaf" version="4.2.1" mgmt_ip="192.168.200.22"]
  "stg-leaf01" [function="leaf" version="4.2.1" mgmt_ip="192.168.200.23"]
  "stg-leaf02" [function="leaf" version="4.2.1" mgmt_ip="192.168.200.24"]

  "compute01" [function="host" os="generic/ubuntu1804" config="helper_scripts/extra_server_config.sh" mgmt_ip="192.168.200.31"]
  "compute02" [function="host" os="generic/ubuntu1804" config="helper_scripts/extra_server_config.sh" mgmt_ip="192.168.200.32"]
  "compute03" [function="host" os="generic/ubuntu1804" config="helper_scripts/extra_server_config.sh" mgmt_ip="192.168.200.33"]
  "compute04" [function="host" os="generic/ubuntu1804" config="helper_scripts/extra_server_config.sh" mgmt_ip="192.168.200.34"]

  "storage01" [function="host" os="generic/ubuntu1804" config="helper_scripts/extra_server_config.sh" mgmt_ip="192.168.200.41"]
  "storage02" [function="host" os="generic/ubuntu1804" config="helper_scripts/extra_server_config.sh" mgmt_ip="192.168.200.42"]

  "fake" [function="fake" os="generic/ubuntu1804"]

  # gpu-leaf01 dgx compute connections
  "gpu-leaf01":"swp1" -- "compute01":"eth1"
  "gpu-leaf01":"swp2" -- "compute01":"eth3"
  "gpu-leaf01":"swp3" -- "compute01":"eth5"
  "gpu-leaf01":"swp4" -- "compute01":"eth7"
  "gpu-leaf01":"swp5" -- "compute02":"eth1"
  "gpu-leaf01":"swp6" -- "compute02":"eth3"
  "gpu-leaf01":"swp7" -- "compute02":"eth5"
  "gpu-leaf01":"swp8" -- "compute02":"eth7"
  "gpu-leaf01":"swp9" -- "compute03":"eth1"
  "gpu-leaf01":"swp10" -- "compute03":"eth3"
  "gpu-leaf01":"swp11" -- "compute03":"eth5"
  "gpu-leaf01":"swp12" -- "compute03":"eth7"
  "gpu-leaf01":"swp13" -- "compute04":"eth1"
  "gpu-leaf01":"swp14" -- "compute04":"eth3"
  "gpu-leaf01":"swp15" -- "compute04":"eth5"
  "gpu-leaf01":"swp16" -- "compute04":"eth7"

  # gpu-leaf02 dgx compute connections
  "gpu-leaf02":"swp1" -- "compute01":"eth2"
  "gpu-leaf02":"swp2" -- "compute01":"eth4"
  "gpu-leaf02":"swp3" -- "compute01":"eth6"
  "gpu-leaf02":"swp4" -- "compute01":"eth8"
  "gpu-leaf02":"swp5" -- "compute02":"eth2"
  "gpu-leaf02":"swp6" -- "compute02":"eth4"
  "gpu-leaf02":"swp7" -- "compute02":"eth6"
  "gpu-leaf02":"swp8" -- "compute02":"eth8"
  "gpu-leaf02":"swp9" -- "compute03":"eth2"
  "gpu-leaf02":"swp10" -- "compute03":"eth4"
  "gpu-leaf02":"swp11" -- "compute03":"eth6"
  "gpu-leaf02":"swp12" -- "compute03":"eth8"
  "gpu-leaf02":"swp13" -- "compute04":"eth2"
  "gpu-leaf02":"swp14" -- "compute04":"eth4"
  "gpu-leaf02":"swp15" -- "compute04":"eth6"
  "gpu-leaf02":"swp16" -- "compute04":"eth8"

  # stg-leaf01 dgx storage connections
  "stg-leaf01":"swp1" -- "compute01":"eth9"
  "stg-leaf01":"swp2" -- "compute02":"eth9"
  "stg-leaf01":"swp3" -- "compute03":"eth9"
  "stg-leaf01":"swp4" -- "compute04":"eth9"
  "stg-leaf01":"swp9" -- "compute01":"eth11"
  "stg-leaf01":"swp10" -- "compute02":"eth11"
  "stg-leaf01":"swp11" -- "compute03":"eth11"
  "stg-leaf01":"swp12" -- "compute04":"eth11"

  # stg-leaf01 storage connections
  "stg-leaf01":"swp17" -- "storage01":"eth1"
  "stg-leaf01":"swp18" -- "storage02":"eth1"
  "stg-leaf01":"swp19" -- "storage01":"eth3"
  "stg-leaf01":"swp20" -- "storage02":"eth3"
  "stg-leaf01":"swp21" -- "storage01":"eth5"
  "stg-leaf01":"swp22" -- "storage02":"eth5"
  "stg-leaf01":"swp23" -- "storage01":"eth7"
  "stg-leaf01":"swp24" -- "storage02":"eth7"

  # stg-leaf01 1RU connections
  "stg-leaf01":"swp25" -- "fake":"eth1"
  "stg-leaf01":"swp26" -- "fake":"eth2"

  # stg-leaf01 uplink connections
  "stg-leaf01":"swp27" -- "fake":"eth3"
  "stg-leaf01":"swp28" -- "fake":"eth4"

  # stg-leaf02 dgx storage connections
  "stg-leaf02":"swp1" -- "compute01":"eth10"
  "stg-leaf02":"swp2" -- "compute02":"eth10"
  "stg-leaf02":"swp3" -- "compute03":"eth10"
  "stg-leaf02":"swp4" -- "compute04":"eth10"
  "stg-leaf02":"swp9" -- "compute01":"eth12"
  "stg-leaf02":"swp10" -- "compute02":"eth12"
  "stg-leaf02":"swp11" -- "compute03":"eth12"
  "stg-leaf02":"swp12" -- "compute04":"eth12"

  # stg-leaf02 storage connections
  "stg-leaf02":"swp17" -- "storage01":"eth2"
  "stg-leaf02":"swp18" -- "storage02":"eth2"
  "stg-leaf02":"swp19" -- "storage01":"eth4"
  "stg-leaf02":"swp20" -- "storage02":"eth4"
  "stg-leaf02":"swp21" -- "storage01":"eth6"
  "stg-leaf02":"swp22" -- "storage02":"eth6"
  "stg-leaf02":"swp23" -- "storage01":"eth8"
  "stg-leaf02":"swp24" -- "storage02":"eth8"

  # stg-leaf02 1RU connections
  "stg-leaf02":"swp25" -- "fake":"eth5"
  "stg-leaf02":"swp26" -- "fake":"eth6"

  # stg-leaf02 uplink connections
  "stg-leaf02":"swp27" -- "fake":"eth7"
  "stg-leaf02":"swp28" -- "fake":"eth8"

  # stg-leaf interconnect
  "stg-leaf01":"swp29" -- "stg-leaf02":"swp29"
  "stg-leaf01":"swp30" -- "stg-leaf02":"swp30"
  "stg-leaf01":"swp31" -- "stg-leaf02":"swp31"
  "stg-leaf01":"swp32" -- "stg-leaf02":"swp32"

  "oob-mgmt-server":"eth0" -- "dummy":"outbound"
  "netq-ts":"eth1" -- "dummy":"outbound-netq-ts"
  "oob-mgmt-server":"eth1" -- "oob-mgmt-switch":"swp1"
  "compute01":"eth0" -- "oob-mgmt-switch":"swp2"
  "compute02":"eth0" -- "oob-mgmt-switch":"swp3"
  "compute03":"eth0" -- "oob-mgmt-switch":"swp4"
  "compute04":"eth0" -- "oob-mgmt-switch":"swp5"
  "storage01":"eth0" -- "oob-mgmt-switch":"swp6"
  "storage02":"eth0" -- "oob-mgmt-switch":"swp7"
  "gpu-leaf01":"eth0" -- "oob-mgmt-switch":"swp8"
  "gpu-leaf02":"eth0" -- "oob-mgmt-switch":"swp9"
  "stg-leaf01":"eth0" -- "oob-mgmt-switch":"swp10"
  "stg-leaf02":"eth0" -- "oob-mgmt-switch":"swp11"
}